<?xml version="1.0" encoding="UTF-8"?>
<testsuite name="testauto.TestApi" tests="6" skipped="0" failures="0" errors="0" timestamp="2026-05-17T07:14:38.362Z" hostname="MS-SILVER" time="15.708">
  <properties/>
  <testcase name="testDeleteUser" classname="testauto.TestApi" time="2.177"/>
  <testcase name="testGetAllUser" classname="testauto.TestApi" time="1.986"/>
  <testcase name="testGetSpecificUser" classname="testauto.TestApi" time="1.155"/>
  <testcase name="testPatchUpdateUser" classname="testauto.TestApi" time="1.983"/>
  <testcase name="testPostCeateUser" classname="testauto.TestApi" time="1.595"/>
  <testcase name="testPutUpdateUser" classname="testauto.TestApi" time="2.379"/>
  <system-out><![CDATA[HTTP/1.1 200 OK
Cache-Control: public, max-age=0, must-revalidate
Content-Encoding: gzip
Content-Type: application/json
Date: Sun, 17 May 2026 07:14:41 GMT
Permissions-Policy: geolocation=(), microphone=(), camera=()
Referrer-Policy: strict-origin-when-cross-origin
Server: Vercel
Strict-Transport-Security: max-age=63072000
Vary: RSC, Next-Router-State-Tree, Next-Router-Prefetch
X-Content-Type-Options: nosniff
X-Frame-Options: DENY
X-Matched-Path: /api/auth/login
X-Ratelimit-Limit: 100
X-Ratelimit-Remaining: 98
X-Ratelimit-Reset: 2026-05-17T07:15:40.882Z
X-Vercel-Cache: MISS
X-Vercel-Id: sin1::iad1::fncjw-1779002080851-384b744c7a3d
X-Xss-Protection: 1; mode=block
Transfer-Encoding: chunked

{
    "success": true,
    "message": "Login berhasil",
    "data": {
        "user": {
            "id": "2de2898a-19c5-42fe-b645-32986eaf7bd9",
            "email": "nikenriri05@gmail.com",
            "nama": "Niken Riri",
            "created_at": "2026-04-30T05:24:57.51991+00:00",
            "updated_at": "2026-04-30T05:24:57.51991+00:00"
        },
        "token": "eyJhbGciOiJIUzI1NiJ9.eyJ1c2VySWQiOiIyZGUyODk4YS0xOWM1LTQyZmUtYjY0NS0zMjk4NmVhZjdiZDkiLCJlbWFpbCI6Im5pa2VucmlyaTA1QGdtYWlsLmNvbSIsIm5hbWEiOiJOaWtlbiBSaXJpIiwiaWF0IjoxNzc5MDAyMDgxLCJleHAiOjE3Nzk2MDY4ODF9.htOrh3uVE8ks8aXwiA5RlFWDdr0EhimJ7_4z7NuPt98"
    }
}
HTTP/1.1 200 OK
Cache-Control: public, max-age=0, must-revalidate
Content-Encoding: gzip
Content-Type: application/json
Date: Sun, 17 May 2026 07:14:44 GMT
Permissions-Policy: geolocation=(), microphone=(), camera=()
Referrer-Policy: strict-origin-when-cross-origin
Server: Vercel
Strict-Transport-Security: max-age=63072000
Vary: RSC, Next-Router-State-Tree, Next-Router-Prefetch
X-Content-Type-Options: nosniff
X-Frame-Options: DENY
X-Matched-Path: /api/siswa/[id]
X-Ratelimit-Limit: 100
X-Ratelimit-Remaining: 98
X-Ratelimit-Reset: 2026-05-17T07:15:43.143Z
X-Vercel-Cache: MISS
X-Vercel-Id: sin1::iad1::jcp5s-1779002083114-3ebe778d582e
X-Xss-Protection: 1; mode=block
Transfer-Encoding: chunked

{
    "success": true,
    "message": "Siswa berhasil dihapus"
}
HTTP/1.1 200 OK
Cache-Control: public, max-age=0, must-revalidate
Content-Encoding: gzip
Content-Type: application/json
Date: Sun, 17 May 2026 07:14:46 GMT
Permissions-Policy: geolocation=(), microphone=(), camera=()
Referrer-Policy: strict-origin-when-cross-origin
Server: Vercel
Strict-Transport-Security: max-age=63072000
Vary: RSC, Next-Router-State-Tree, Next-Router-Prefetch
X-Content-Type-Options: nosniff
X-Frame-Options: DENY
X-Matched-Path: /api/siswa
X-Ratelimit-Limit: 100
X-Ratelimit-Remaining: 98
X-Ratelimit-Reset: 2026-05-17T07:15:45.339Z
X-Vercel-Cache: BYPASS
X-Vercel-Id: sin1::iad1::qlq8l-1779002085316-72562b5bbcd0
X-Xss-Protection: 1; mode=block
Transfer-Encoding: chunked

{
    "success": true,
    "data": {
        "data": [
            {
                "id": "593f9989-a265-4cab-a917-92aba66d82be",
                "nama": "Budiono Wongsi",
                "nis": "9740881483",
                "kelas": "X-IPA-2",
                "jurusan": "IPA",
                "email": "wongso@mail.com",
                "telepon": null,
                "alamat": "Bandung",
                "created_by": "unknown",
                "created_at": "2026-05-15T10:08:18.560541+00:00",
                "updated_at": "2026-05-15T10:08:18.560541+00:00"
            },
            {
                "id": "512b70f9-17d9-42ae-841c-88b84fb8790c",
                "nama": "QA Testinggggg",
                "nis": "2216678823",
                "kelas": "X-IPA-2",
                "jurusan": "IPA",
                "email": "qatest22@mail.com",
                "telepon": null,
                "alamat": "Bandung",
                "created_by": "unknown",
                "created_at": "2026-05-15T08:48:28.826449+00:00",
                "updated_at": "2026-05-15T08:48:28.826449+00:00"
            },
            {
                "id": "cc475796-8bf3-4d89-9f72-91f148f95bee",
                "nama": "Husnul Fuad",
                "nis": "200045",
                "kelas": "X-IPA-1",
                "jurusan": "IPA",
                "email": "husnul.smith@example.com",
                "telepon": null,
                "alamat": null,
                "created_by": "unknown",
                "created_at": "2026-05-09T03:36:16.483572+00:00",
                "updated_at": "2026-05-09T03:42:27.296441+00:00"
            },
            {
                "id": "11677198-e1fd-4a55-a63e-71a0021927e6",
                "nama": "QA Test",
                "nis": "12345678",
                "kelas": "X-IPA-1",
                "jurusan": "IPA",
                "email": "qatest@mail.com",
                "telepon": null,
                "alamat": "Bandung",
                "created_by": "unknown",
                "created_at": "2026-05-05T01:41:23.403612+00:00",
                "updated_at": "2026-05-05T01:41:23.403612+00:00"
            },
            {
                "id": "24905351-4daf-4c50-ab00-f3e052f64e95",
                "nama": "Widiany Putri Ramadhani",
                "nis": "124200090",
                "kelas": "XI-IPA-3",
                "jurusan": "IPA",
                "email": "widiany01@gmail.com",
                "telepon": "08123456890",
                "alamat": "Jaksel",
                "created_by": "unknown",
                "created_at": "2026-05-01T06:23:54.448688+00:00",
                "updated_at": "2026-05-17T07:06:57.794273+00:00"
            },
            {
                "id": "3afd9fb1-bd65-4d30-8063-bb9f680c92b8",
                "nama": "Tania Updated",
                "nis": "12349",
                "kelas": "X-IPA-2",
                "jurusan": "IPA",
                "email": null,
                "telepon": null,
                "alamat": null,
                "created_by": "unknown",
                "created_at": "2026-04-24T14:08:25.50948+00:00",
                "updated_at": "2026-04-29T04:09:49.670618+00:00"
            },
            {
                "id": "614a1d15-7f66-410d-a206-d875a86c8684",
                "nama": "BELAJAR ALLURE REPORT DUA",
                "nis": "20260219",
                "kelas": "X-IPA-1",
                "jurusan": "IPA",
                "email": "jesi@example.com",
                "telepon": "+628123456789",
                "alamat": "Jl. Contoh No. 2",
                "created_by": "unknown",
                "created_at": "2026-04-21T07:42:09.77556+00:00",
                "updated_at": "2026-04-21T07:42:09.77556+00:00"
            },
            {
                "id": "53213bca-87e2-4a48-b977-c96b732aafc2",
                "nama": "Siti",
                "nis": "43216",
                "kelas": "X-IPA-1",
                "jurusan": "IPA",
                "email": "aisyah12@gmail.com",
                "telepon": "089807654231",
                "alamat": "Jl. Badug No 90",
                "created_by": "unknown",
                "created_at": "2026-03-21T13:27:22.799292+00:00",
                "updated_at": "2026-03-21T13:27:22.799292+00:00"
            },
            {
                "id": "356d5ad6-c230-46f7-9f5f-a506b5bace3f",
                "nama": "Tania SP",
                "nis": "34512",
                "kelas": "X-IPA-1",
                "jurusan": "IPA",
                "email": "taniasywl@gmail.com",
                "telepon": "081234562120",
                "alamat": "Jl. garut No. 90",
                "created_by": "unknown",
                "created_at": "2026-03-18T02:25:01.60851+00:00",
                "updated_at": "2026-03-18T02:25:01.60851+00:00"
            },
            {
                "id": "d5fbe550-1728-4bb0-8f88-3aa9fde2017f",
                "nama": "Tania Syawaliyah P",
                "nis": "97865",
                "kelas": "X-IPA-1",
                "jurusan": "IPA",
                "email": "taniasyw1@gmail.com",
                "telepon": null,
                "alamat": "Jl. garut No. 2",
                "created_by": "unknown",
                "created_at": "2026-03-16T21:32:19.709783+00:00",
                "updated_at": "2026-03-16T21:32:19.709783+00:00"
            }
        ],
        "pagination": {
            "page": 1,
            "limit": 10,
            "total": 11528,
            "totalPages": 1153
        }
    }
}
HTTP/1.1 200 OK
Cache-Control: public, max-age=0, must-revalidate
Content-Encoding: gzip
Content-Type: application/json
Date: Sun, 17 May 2026 07:14:48 GMT
Permissions-Policy: geolocation=(), microphone=(), camera=()
Referrer-Policy: strict-origin-when-cross-origin
Server: Vercel
Strict-Transport-Security: max-age=63072000
Vary: RSC, Next-Router-State-Tree, Next-Router-Prefetch
X-Content-Type-Options: nosniff
X-Frame-Options: DENY
X-Matched-Path: /api/siswa/[id]
X-Ratelimit-Limit: 100
X-Ratelimit-Remaining: 98
X-Ratelimit-Reset: 2026-05-17T07:15:47.312Z
X-Vercel-Cache: BYPASS
X-Vercel-Id: sin1::iad1::mx6m8-1779002087294-0f8c2b676ea7
X-Xss-Protection: 1; mode=block
Transfer-Encoding: chunked

{
    "success": true,
    "data": {
        "id": "24905351-4daf-4c50-ab00-f3e052f64e95",
        "nama": "Widiany Putri Ramadhani",
        "nis": "124200090",
        "kelas": "XI-IPA-3",
        "jurusan": "IPA",
        "email": "widiany01@gmail.com",
        "telepon": "08123456890",
        "alamat": "Jaksel",
        "created_by": "unknown",
        "created_at": "2026-05-01T06:23:54.448688+00:00",
        "updated_at": "2026-05-17T07:06:57.794273+00:00"
    }
}
HTTP/1.1 200 OK
Cache-Control: public, max-age=0, must-revalidate
Content-Encoding: gzip
Content-Type: application/json
Date: Sun, 17 May 2026 07:14:49 GMT
Permissions-Policy: geolocation=(), microphone=(), camera=()
Referrer-Policy: strict-origin-when-cross-origin
Server: Vercel
Strict-Transport-Security: max-age=63072000
Vary: RSC, Next-Router-State-Tree, Next-Router-Prefetch
X-Content-Type-Options: nosniff
X-Frame-Options: DENY
X-Matched-Path: /api/siswa/[id]
X-Ratelimit-Limit: 100
X-Ratelimit-Remaining: 98
X-Ratelimit-Reset: 2026-05-17T07:15:48.494Z
X-Vercel-Cache: MISS
X-Vercel-Id: sin1::iad1::77f7m-1779002088473-d33e94ffb844
X-Xss-Protection: 1; mode=block
Transfer-Encoding: chunked

{
    "success": true,
    "message": "Siswa berhasil diupdate",
    "data": {
        "id": "24905351-4daf-4c50-ab00-f3e052f64e95",
        "nama": "Widiany Putri Ramadhani",
        "nis": "124200090",
        "kelas": "XI-IPA-3",
        "jurusan": "IPA",
        "email": "widiany.putri@gmail.com",
        "telepon": "08123456890",
        "alamat": "Jaksel",
        "created_by": "unknown",
        "created_at": "2026-05-01T06:23:54.448688+00:00",
        "updated_at": "2026-05-17T07:14:49.753113+00:00"
    }
}
HTTP/1.1 201 Created
Cache-Control: public, max-age=0, must-revalidate
Content-Type: application/json
Date: Sun, 17 May 2026 07:14:51 GMT
Permissions-Policy: geolocation=(), microphone=(), camera=()
Referrer-Policy: strict-origin-when-cross-origin
Server: Vercel
Strict-Transport-Security: max-age=63072000
Vary: RSC, Next-Router-State-Tree, Next-Router-Prefetch
X-Content-Type-Options: nosniff
X-Frame-Options: DENY
X-Matched-Path: /api/siswa
X-Ratelimit-Limit: 100
X-Ratelimit-Remaining: 98
X-Ratelimit-Reset: 2026-05-17T07:15:50.453Z
X-Vercel-Cache: MISS
X-Vercel-Id: sin1::iad1::bh9gq-1779002090415-26cd91852e05
X-Xss-Protection: 1; mode=block
Transfer-Encoding: chunked

{
    "success": true,
    "message": "Siswa berhasil ditambahkan",
    "data": {
        "id": "e2fcf4c5-5076-40b7-98d6-25febf018976",
        "nama": "Dewi Sartika",
        "nis": "124200001",
        "kelas": "XI-IPS-2",
        "jurusan": "IPS",
        "email": "dewi.05@gmail.com",
        "telepon": "085890344142",
        "alamat": "Semarang",
        "created_by": "unknown",
        "created_at": "2026-05-17T07:14:51.5187+00:00",
        "updated_at": "2026-05-17T07:14:51.5187+00:00"
    }
}
HTTP/1.1 200 OK
Cache-Control: public, max-age=0, must-revalidate
Content-Encoding: gzip
Content-Type: application/json
Date: Sun, 17 May 2026 07:14:53 GMT
Permissions-Policy: geolocation=(), microphone=(), camera=()
Referrer-Policy: strict-origin-when-cross-origin
Server: Vercel
Strict-Transport-Security: max-age=63072000
Vary: RSC, Next-Router-State-Tree, Next-Router-Prefetch
X-Content-Type-Options: nosniff
X-Frame-Options: DENY
X-Matched-Path: /api/siswa/[id]
X-Ratelimit-Limit: 100
X-Ratelimit-Remaining: 98
X-Ratelimit-Reset: 2026-05-17T07:15:52.060Z
X-Vercel-Cache: MISS
X-Vercel-Id: sin1::iad1::874gx-1779002092034-9b8b2d2c09ce
X-Xss-Protection: 1; mode=block
Transfer-Encoding: chunked

{
    "success": true,
    "message": "Siswa berhasil diupdate",
    "data": {
        "id": "24905351-4daf-4c50-ab00-f3e052f64e95",
        "nama": "Widiany Putri Ramadhani",
        "nis": "124200090",
        "kelas": "XI-IPA-3",
        "jurusan": "IPA",
        "email": "widiany01@gmail.com",
        "telepon": "08123450534",
        "alamat": "Jaksel",
        "created_by": "unknown",
        "created_at": "2026-05-01T06:23:54.448688+00:00",
        "updated_at": "2026-05-17T07:14:53.845618+00:00"
    }
}
]]></system-out>
  <system-err><![CDATA[]]></system-err>
</testsuite>
